{
  "project_info": {
    "project_number": "114405053973",
    "firebase_url": "https://book-diary-f33f0.firebaseio.com",
    "project_id": "book-diary-f33f0",
    "storage_bucket": "book-diary-f33f0.appspot.com"
  },
  "client": [
    {
      "client_info": {
        "mobilesdk_app_id": "1:114405053973:android:f6148233c00d19d7",
        "android_client_info": {
          "package_name": "com.bilybranislav.bookdiary"
        }
      },
      "oauth_client": [
        {
          "client_id": "114405053973-8ddknn1vo95cb1o99r7fv35svu3bjjf1.apps.googleusercontent.com",
          "client_type": 3
        }
      ],
      "api_key": [
        {
          "current_key": "AIzaSyAkygc8a1Nq-Lf-8iNEJjK7DsO_w1rneMc"
        }
      ],
      "services": {
        "analytics_service": {
          "status": 1
        },
        "appinvite_service": {
          "status": 1,
          "other_platform_oauth_client": []
        },
        "ads_service": {
          "status": 2
        }
      }
    }
  ],
  "configuration_version": "1"
}